%YAML 1.1
%TAG !u! tag:unity3d.com,2011:
--- !u!136 &1482865569
CapsuleCollider:
  m_ObjectHideFlags: 0
  m_CorrespondingSourceObject: {fileID: 0}
  m_PrefabInstance: {fileID: 0}
  m_PrefabAsset: {fileID: 0}
  m_GameObject: {fileID: 3723812602619193190}
  m_Material: {fileID: 0}
  m_IsTrigger: 0
  m_Enabled: 1
  m_Radius: 1
  m_Height: 9
  m_Direction: 0
  m_Center: {x: 0, y: 0, z: 0}
--- !u!1001 &3723812602619158912
PrefabInstance:
  m_ObjectHideFlags: 0
  serializedVersion: 2
  m_Modification:
    m_TransformParent: {fileID: 0}
    m_Modifications:
    - target: {fileID: 100070, guid: dca497ffe83949640be4a2c55364817e, type: 3}
      propertyPath: m_Name
      value: PotatoFarm
      objectReference: {fileID: 0}
    - target: {fileID: 400070, guid: dca497ffe83949640be4a2c55364817e, type: 3}
      propertyPath: m_LocalPosition.x
      value: 7.655
      objectReference: {fileID: 0}
    - target: {fileID: 400070, guid: dca497ffe83949640be4a2c55364817e, type: 3}
      propertyPath: m_LocalPosition.y
      value: 3.702865
      objectReference: {fileID: 0}
    - target: {fileID: 400070, guid: dca497ffe83949640be4a2c55364817e, type: 3}
      propertyPath: m_LocalPosition.z
      value: 10.771
      objectReference: {fileID: 0}
    - target: {fileID: 400070, guid: dca497ffe83949640be4a2c55364817e, type: 3}
      propertyPath: m_LocalRotation.x
      value: -0
      objectReference: {fileID: 0}
    - target: {fileID: 400070, guid: dca497ffe83949640be4a2c55364817e, type: 3}
      propertyPath: m_LocalRotation.y
      value: 0.5331745
      objectReference: {fileID: 0}
    - target: {fileID: 400070, guid: dca497ffe83949640be4a2c55364817e, type: 3}
      propertyPath: m_LocalRotation.z
      value: -0
      objectReference: {fileID: 0}
    - target: {fileID: 400070, guid: dca497ffe83949640be4a2c55364817e, type: 3}
      propertyPath: m_LocalRotation.w
      value: 0.8460053
      objectReference: {fileID: 0}
    - target: {fileID: 400070, guid: dca497ffe83949640be4a2c55364817e, type: 3}
      propertyPath: m_RootOrder
      value: 0
      objectReference: {fileID: 0}
    - target: {fileID: 400070, guid: dca497ffe83949640be4a2c55364817e, type: 3}
      propertyPath: m_LocalEulerAnglesHint.x
      value: 0
      objectReference: {fileID: 0}
    - target: {fileID: 400070, guid: dca497ffe83949640be4a2c55364817e, type: 3}
      propertyPath: m_LocalEulerAnglesHint.y
      value: 64.44
      objectReference: {fileID: 0}
    - target: {fileID: 400070, guid: dca497ffe83949640be4a2c55364817e, type: 3}
      propertyPath: m_LocalEulerAnglesHint.z
      value: 0
      objectReference: {fileID: 0}
    - target: {fileID: 400070, guid: dca497ffe83949640be4a2c55364817e, type: 3}
      propertyPath: m_LocalScale.x
      value: 0.25
      objectReference: {fileID: 0}
    - target: {fileID: 400070, guid: dca497ffe83949640be4a2c55364817e, type: 3}
      propertyPath: m_LocalScale.y
      value: 0.3
      objectReference: {fileID: 0}
    - target: {fileID: 400070, guid: dca497ffe83949640be4a2c55364817e, type: 3}
      propertyPath: m_LocalScale.z
      value: 0.3
      objectReference: {fileID: 0}
    - target: {fileID: 2300000, guid: dca497ffe83949640be4a2c55364817e, type: 3}
      propertyPath: m_Materials.Array.data[0]
      value: 
      objectReference: {fileID: 2100000, guid: 89da40298c3f4fd46933b23e39c7d0ac, type: 2}
    - target: {fileID: 2300002, guid: dca497ffe83949640be4a2c55364817e, type: 3}
      propertyPath: m_Materials.Array.data[0]
      value: 
      objectReference: {fileID: 2100000, guid: 89da40298c3f4fd46933b23e39c7d0ac, type: 2}
    - target: {fileID: 2300004, guid: dca497ffe83949640be4a2c55364817e, type: 3}
      propertyPath: m_Materials.Array.data[0]
      value: 
      objectReference: {fileID: 2100000, guid: 89da40298c3f4fd46933b23e39c7d0ac, type: 2}
    - target: {fileID: 2300006, guid: dca497ffe83949640be4a2c55364817e, type: 3}
      propertyPath: m_Materials.Array.data[0]
      value: 
      objectReference: {fileID: 2100000, guid: 89da40298c3f4fd46933b23e39c7d0ac, type: 2}
    - target: {fileID: 2300008, guid: dca497ffe83949640be4a2c55364817e, type: 3}
      propertyPath: m_Materials.Array.data[0]
      value: 
      objectReference: {fileID: 2100000, guid: 89da40298c3f4fd46933b23e39c7d0ac, type: 2}
    - target: {fileID: 2300010, guid: dca497ffe83949640be4a2c55364817e, type: 3}
      propertyPath: m_Materials.Array.data[0]
      value: 
      objectReference: {fileID: 2100000, guid: 89da40298c3f4fd46933b23e39c7d0ac, type: 2}
    - target: {fileID: 2300012, guid: dca497ffe83949640be4a2c55364817e, type: 3}
      propertyPath: m_Materials.Array.data[0]
      value: 
      objectReference: {fileID: 2100000, guid: 89da40298c3f4fd46933b23e39c7d0ac, type: 2}
    - target: {fileID: 2300014, guid: dca497ffe83949640be4a2c55364817e, type: 3}
      propertyPath: m_Materials.Array.data[0]
      value: 
      objectReference: {fileID: 2100000, guid: 89da40298c3f4fd46933b23e39c7d0ac, type: 2}
    - target: {fileID: 2300016, guid: dca497ffe83949640be4a2c55364817e, type: 3}
      propertyPath: m_Materials.Array.data[0]
      value: 
      objectReference: {fileID: 2100000, guid: 89da40298c3f4fd46933b23e39c7d0ac, type: 2}
    - target: {fileID: 2300018, guid: dca497ffe83949640be4a2c55364817e, type: 3}
      propertyPath: m_Materials.Array.data[0]
      value: 
      objectReference: {fileID: 2100000, guid: 89da40298c3f4fd46933b23e39c7d0ac, type: 2}
    - target: {fileID: 2300020, guid: dca497ffe83949640be4a2c55364817e, type: 3}
      propertyPath: m_Materials.Array.data[0]
      value: 
      objectReference: {fileID: 2100000, guid: 89da40298c3f4fd46933b23e39c7d0ac, type: 2}
    - target: {fileID: 2300022, guid: dca497ffe83949640be4a2c55364817e, type: 3}
      propertyPath: m_Materials.Array.data[0]
      value: 
      objectReference: {fileID: 2100000, guid: 89da40298c3f4fd46933b23e39c7d0ac, type: 2}
    - target: {fileID: 2300024, guid: dca497ffe83949640be4a2c55364817e, type: 3}
      propertyPath: m_Materials.Array.data[0]
      value: 
      objectReference: {fileID: 2100000, guid: 89da40298c3f4fd46933b23e39c7d0ac, type: 2}
    - target: {fileID: 2300026, guid: dca497ffe83949640be4a2c55364817e, type: 3}
      propertyPath: m_Materials.Array.data[0]
      value: 
      objectReference: {fileID: 2100000, guid: 89da40298c3f4fd46933b23e39c7d0ac, type: 2}
    - target: {fileID: 2300028, guid: dca497ffe83949640be4a2c55364817e, type: 3}
      propertyPath: m_Materials.Array.data[0]
      value: 
      objectReference: {fileID: 2100000, guid: 89da40298c3f4fd46933b23e39c7d0ac, type: 2}
    - target: {fileID: 2300030, guid: dca497ffe83949640be4a2c55364817e, type: 3}
      propertyPath: m_Materials.Array.data[0]
      value: 
      objectReference: {fileID: 2100000, guid: 89da40298c3f4fd46933b23e39c7d0ac, type: 2}
    - target: {fileID: 2300032, guid: dca497ffe83949640be4a2c55364817e, type: 3}
      propertyPath: m_Materials.Array.data[0]
      value: 
      objectReference: {fileID: 2100000, guid: 89da40298c3f4fd46933b23e39c7d0ac, type: 2}
    - target: {fileID: 2300034, guid: dca497ffe83949640be4a2c55364817e, type: 3}
      propertyPath: m_Materials.Array.data[0]
      value: 
      objectReference: {fileID: 2100000, guid: e8275af2bf960684abfa3fcbbeeb2351, type: 2}
    - target: {fileID: 2300036, guid: dca497ffe83949640be4a2c55364817e, type: 3}
      propertyPath: m_Materials.Array.data[0]
      value: 
      objectReference: {fileID: 2100000, guid: 59440e0326d3ab743badbf16e9ef5b0b, type: 2}
    - target: {fileID: 2300038, guid: dca497ffe83949640be4a2c55364817e, type: 3}
      propertyPath: m_Materials.Array.data[0]
      value: 
      objectReference: {fileID: 2100000, guid: 59440e0326d3ab743badbf16e9ef5b0b, type: 2}
    - target: {fileID: 2300040, guid: dca497ffe83949640be4a2c55364817e, type: 3}
      propertyPath: m_Materials.Array.data[0]
      value: 
      objectReference: {fileID: 2100000, guid: 59440e0326d3ab743badbf16e9ef5b0b, type: 2}
    - target: {fileID: 2300042, guid: dca497ffe83949640be4a2c55364817e, type: 3}
      propertyPath: m_Materials.Array.data[0]
      value: 
      objectReference: {fileID: 2100000, guid: 59440e0326d3ab743badbf16e9ef5b0b, type: 2}
    - target: {fileID: 2300044, guid: dca497ffe83949640be4a2c55364817e, type: 3}
      propertyPath: m_Materials.Array.data[0]
      value: 
      objectReference: {fileID: 2100000, guid: 59440e0326d3ab743badbf16e9ef5b0b, type: 2}
    - target: {fileID: 2300046, guid: dca497ffe83949640be4a2c55364817e, type: 3}
      propertyPath: m_Materials.Array.data[0]
      value: 
      objectReference: {fileID: 2100000, guid: 59440e0326d3ab743badbf16e9ef5b0b, type: 2}
    - target: {fileID: 2300048, guid: dca497ffe83949640be4a2c55364817e, type: 3}
      propertyPath: m_Materials.Array.data[0]
      value: 
      objectReference: {fileID: 2100000, guid: 59440e0326d3ab743badbf16e9ef5b0b, type: 2}
    - target: {fileID: 2300050, guid: dca497ffe83949640be4a2c55364817e, type: 3}
      propertyPath: m_Materials.Array.data[0]
      value: 
      objectReference: {fileID: 2100000, guid: 59440e0326d3ab743badbf16e9ef5b0b, type: 2}
    - target: {fileID: 2300052, guid: dca497ffe83949640be4a2c55364817e, type: 3}
      propertyPath: m_Materials.Array.data[0]
      value: 
      objectReference: {fileID: 2100000, guid: 59440e0326d3ab743badbf16e9ef5b0b, type: 2}
    - target: {fileID: 2300054, guid: dca497ffe83949640be4a2c55364817e, type: 3}
      propertyPath: m_Materials.Array.data[0]
      value: 
      objectReference: {fileID: 2100000, guid: 59440e0326d3ab743badbf16e9ef5b0b, type: 2}
    - target: {fileID: 2300056, guid: dca497ffe83949640be4a2c55364817e, type: 3}
      propertyPath: m_Materials.Array.data[0]
      value: 
      objectReference: {fileID: 2100000, guid: 59440e0326d3ab743badbf16e9ef5b0b, type: 2}
    - target: {fileID: 2300058, guid: dca497ffe83949640be4a2c55364817e, type: 3}
      propertyPath: m_Materials.Array.data[0]
      value: 
      objectReference: {fileID: 2100000, guid: 59440e0326d3ab743badbf16e9ef5b0b, type: 2}
    - target: {fileID: 2300060, guid: dca497ffe83949640be4a2c55364817e, type: 3}
      propertyPath: m_Materials.Array.data[0]
      value: 
      objectReference: {fileID: 2100000, guid: 59440e0326d3ab743badbf16e9ef5b0b, type: 2}
    - target: {fileID: 2300062, guid: dca497ffe83949640be4a2c55364817e, type: 3}
      propertyPath: m_Materials.Array.data[0]
      value: 
      objectReference: {fileID: 2100000, guid: 59440e0326d3ab743badbf16e9ef5b0b, type: 2}
    - target: {fileID: 2300064, guid: dca497ffe83949640be4a2c55364817e, type: 3}
      propertyPath: m_Materials.Array.data[0]
      value: 
      objectReference: {fileID: 2100000, guid: 59440e0326d3ab743badbf16e9ef5b0b, type: 2}
    - target: {fileID: 2300066, guid: dca497ffe83949640be4a2c55364817e, type: 3}
      propertyPath: m_Materials.Array.data[0]
      value: 
      objectReference: {fileID: 2100000, guid: 59440e0326d3ab743badbf16e9ef5b0b, type: 2}
    - target: {fileID: 2300068, guid: dca497ffe83949640be4a2c55364817e, type: 3}
      propertyPath: m_Materials.Array.data[0]
      value: 
      objectReference: {fileID: 2100000, guid: 59440e0326d3ab743badbf16e9ef5b0b, type: 2}
    m_RemovedComponents: []
  m_SourcePrefab: {fileID: 100100000, guid: dca497ffe83949640be4a2c55364817e, type: 3}
--- !u!1 &3723812602619193190 stripped
GameObject:
  m_CorrespondingSourceObject: {fileID: 100070, guid: dca497ffe83949640be4a2c55364817e, type: 3}
  m_PrefabInstance: {fileID: 3723812602619158912}
  m_PrefabAsset: {fileID: 0}
