%YAML 1.1
%TAG !u! tag:unity3d.com,2011:
--- !u!1 &5761378338694217669
GameObject:
  m_ObjectHideFlags: 0
  m_CorrespondingSourceObject: {fileID: 0}
  m_PrefabInstance: {fileID: 0}
  m_PrefabAsset: {fileID: 0}
  serializedVersion: 6
  m_Component:
  - component: {fileID: 1809535305582905686}
  - component: {fileID: 210489862069541221}
  - component: {fileID: 7929778352746072395}
  - component: {fileID: 4309692361134460595}
  - component: {fileID: 7744650194163897124}
  m_Layer: 0
  m_Name: Small Hut
  m_TagString: Untagged
  m_Icon: {fileID: 0}
  m_NavMeshLayer: 0
  m_StaticEditorFlags: 0
  m_IsActive: 1
--- !u!4 &1809535305582905686
Transform:
  m_ObjectHideFlags: 0
  m_CorrespondingSourceObject: {fileID: 0}
  m_PrefabInstance: {fileID: 0}
  m_PrefabAsset: {fileID: 0}
  m_GameObject: {fileID: 5761378338694217669}
  m_LocalRotation: {x: 0, y: 0, z: 0, w: 1}
  m_LocalPosition: {x: 14.766526, y: 3.924161, z: 9.17204}
  m_LocalScale: {x: 1, y: 1, z: 1}
  m_Children: []
  m_Father: {fileID: 0}
  m_RootOrder: 0
  m_LocalEulerAnglesHint: {x: 0, y: 0, z: 0}
--- !u!33 &210489862069541221
MeshFilter:
  m_ObjectHideFlags: 0
  m_CorrespondingSourceObject: {fileID: 0}
  m_PrefabInstance: {fileID: 0}
  m_PrefabAsset: {fileID: 0}
  m_GameObject: {fileID: 5761378338694217669}
  m_Mesh: {fileID: 0}
--- !u!23 &7929778352746072395
MeshRenderer:
  m_ObjectHideFlags: 0
  m_CorrespondingSourceObject: {fileID: 0}
  m_PrefabInstance: {fileID: 0}
  m_PrefabAsset: {fileID: 0}
  m_GameObject: {fileID: 5761378338694217669}
  m_Enabled: 1
  m_CastShadows: 1
  m_ReceiveShadows: 1
  m_DynamicOccludee: 1
  m_MotionVectors: 1
  m_LightProbeUsage: 1
  m_ReflectionProbeUsage: 1
  m_RayTracingMode: 2
  m_RayTraceProcedural: 0
  m_RenderingLayerMask: 1
  m_RendererPriority: 0
  m_Materials:
  - {fileID: 2100000, guid: c22777d6e868e4f2fb421913386b154e, type: 2}
  m_StaticBatchInfo:
    firstSubMesh: 0
    subMeshCount: 0
  m_StaticBatchRoot: {fileID: 0}
  m_ProbeAnchor: {fileID: 0}
  m_LightProbeVolumeOverride: {fileID: 0}
  m_ScaleInLightmap: 1
  m_ReceiveGI: 1
  m_PreserveUVs: 0
  m_IgnoreNormalsForChartDetection: 0
  m_ImportantGI: 0
  m_StitchLightmapSeams: 1
  m_SelectedEditorRenderState: 2
  m_MinimumChartSize: 4
  m_AutoUVMaxDistance: 0.5
  m_AutoUVMaxAngle: 89
  m_LightmapParameters: {fileID: 0}
  m_SortingLayerID: 0
  m_SortingLayer: 0
  m_SortingOrder: 0
  m_AdditionalVertexStreams: {fileID: 0}
--- !u!114 &4309692361134460595
MonoBehaviour:
  m_ObjectHideFlags: 0
  m_CorrespondingSourceObject: {fileID: 0}
  m_PrefabInstance: {fileID: 0}
  m_PrefabAsset: {fileID: 0}
  m_GameObject: {fileID: 5761378338694217669}
  m_Enabled: 1
  m_EditorHideFlags: 0
  m_Script: {fileID: 11500000, guid: 8233d90336aea43098adf6dbabd606a2, type: 3}
  m_Name: 
  m_EditorClassIdentifier: 
  m_MeshFormatVersion: 1
  m_Faces:
  - m_Indexes: 000000000100000002000000010000000300000002000000
    m_SmoothingGroup: 1
    m_Uv:
      m_UseWorldSpace: 0
      m_FlipU: 0
      m_FlipV: 0
      m_SwapUV: 0
      m_Fill: 1
      m_Scale: {x: 1, y: 1}
      m_Offset: {x: 0, y: 0}
      m_Rotation: 0
      m_Anchor: 9
    m_Material: {fileID: 0}
    m_SubmeshIndex: 0
    m_ManualUV: 0
    elementGroup: -1
    m_TextureGroup: -1
  - m_Indexes: 040000000500000006000000050000000700000006000000
    m_SmoothingGroup: 1
    m_Uv:
      m_UseWorldSpace: 0
      m_FlipU: 0
      m_FlipV: 0
      m_SwapUV: 0
      m_Fill: 1
      m_Scale: {x: 1, y: 1}
      m_Offset: {x: 0, y: 0}
      m_Rotation: 0
      m_Anchor: 9
    m_Material: {fileID: 0}
    m_SubmeshIndex: 0
    m_ManualUV: 0
    elementGroup: -1
    m_TextureGroup: -1
  - m_Indexes: 08000000090000000a000000090000000b0000000a000000
    m_SmoothingGroup: 1
    m_Uv:
      m_UseWorldSpace: 0
      m_FlipU: 0
      m_FlipV: 0
      m_SwapUV: 0
      m_Fill: 1
      m_Scale: {x: 1, y: 1}
      m_Offset: {x: 0, y: 0}
      m_Rotation: 0
      m_Anchor: 9
    m_Material: {fileID: 0}
    m_SubmeshIndex: 0
    m_ManualUV: 0
    elementGroup: -1
    m_TextureGroup: -1
  - m_Indexes: 0c0000000d0000000e0000000d0000000f0000000e000000
    m_SmoothingGroup: 1
    m_Uv:
      m_UseWorldSpace: 0
      m_FlipU: 0
      m_FlipV: 0
      m_SwapUV: 0
      m_Fill: 1
      m_Scale: {x: 1, y: 1}
      m_Offset: {x: 0, y: 0}
      m_Rotation: 0
      m_Anchor: 9
    m_Material: {fileID: 0}
    m_SubmeshIndex: 0
    m_ManualUV: 0
    elementGroup: -1
    m_TextureGroup: -1
  - m_Indexes: 100000001100000012000000110000001300000012000000
    m_SmoothingGroup: 1
    m_Uv:
      m_UseWorldSpace: 0
      m_FlipU: 0
      m_FlipV: 0
      m_SwapUV: 0
      m_Fill: 1
      m_Scale: {x: 1, y: 1}
      m_Offset: {x: 0, y: 0}
      m_Rotation: 0
      m_Anchor: 9
    m_Material: {fileID: 0}
    m_SubmeshIndex: 0
    m_ManualUV: 0
    elementGroup: -1
    m_TextureGroup: -1
  - m_Indexes: 140000001500000016000000150000001700000016000000
    m_SmoothingGroup: 1
    m_Uv:
      m_UseWorldSpace: 0
      m_FlipU: 0
      m_FlipV: 0
      m_SwapUV: 0
      m_Fill: 1
      m_Scale: {x: 1, y: 1}
      m_Offset: {x: 0, y: 0}
      m_Rotation: 0
      m_Anchor: 9
    m_Material: {fileID: 0}
    m_SubmeshIndex: 0
    m_ManualUV: 0
    elementGroup: -1
    m_TextureGroup: -1
  - m_Indexes: 1a0000001900000018000000
    m_SmoothingGroup: 0
    m_Uv:
      m_UseWorldSpace: 0
      m_FlipU: 0
      m_FlipV: 0
      m_SwapUV: 0
      m_Fill: 1
      m_Scale: {x: 1, y: 1}
      m_Offset: {x: 0, y: 0}
      m_Rotation: 0
      m_Anchor: 9
    m_Material: {fileID: 2100000, guid: c22777d6e868e4f2fb421913386b154e, type: 2}
    m_SubmeshIndex: 0
    m_ManualUV: 0
    elementGroup: 0
    m_TextureGroup: -1
  - m_Indexes: 200000001f0000001e000000
    m_SmoothingGroup: 0
    m_Uv:
      m_UseWorldSpace: 0
      m_FlipU: 0
      m_FlipV: 0
      m_SwapUV: 0
      m_Fill: 1
      m_Scale: {x: 1, y: 1}
      m_Offset: {x: 0, y: 0}
      m_Rotation: 0
      m_Anchor: 9
    m_Material: {fileID: 2100000, guid: c22777d6e868e4f2fb421913386b154e, type: 2}
    m_SubmeshIndex: 0
    m_ManualUV: 0
    elementGroup: 0
    m_TextureGroup: -1
  - m_Indexes: 260000002500000024000000
    m_SmoothingGroup: 0
    m_Uv:
      m_UseWorldSpace: 0
      m_FlipU: 0
      m_FlipV: 0
      m_SwapUV: 0
      m_Fill: 1
      m_Scale: {x: 1, y: 1}
      m_Offset: {x: 0, y: 0}
      m_Rotation: 0
      m_Anchor: 9
    m_Material: {fileID: 2100000, guid: c22777d6e868e4f2fb421913386b154e, type: 2}
    m_SubmeshIndex: 0
    m_ManualUV: 0
    elementGroup: 0
    m_TextureGroup: -1
  - m_Indexes: 2c0000002b0000002a000000
    m_SmoothingGroup: 0
    m_Uv:
      m_UseWorldSpace: 0
      m_FlipU: 0
      m_FlipV: 0
      m_SwapUV: 0
      m_Fill: 1
      m_Scale: {x: 1, y: 1}
      m_Offset: {x: 0, y: 0}
      m_Rotation: 0
      m_Anchor: 9
    m_Material: {fileID: 2100000, guid: c22777d6e868e4f2fb421913386b154e, type: 2}
    m_SubmeshIndex: 0
    m_ManualUV: 0
    elementGroup: 0
    m_TextureGroup: -1
  - m_Indexes: 320000003100000030000000
    m_SmoothingGroup: 0
    m_Uv:
      m_UseWorldSpace: 0
      m_FlipU: 0
      m_FlipV: 0
      m_SwapUV: 0
      m_Fill: 1
      m_Scale: {x: 1, y: 1}
      m_Offset: {x: 0, y: 0}
      m_Rotation: 0
      m_Anchor: 9
    m_Material: {fileID: 2100000, guid: c22777d6e868e4f2fb421913386b154e, type: 2}
    m_SubmeshIndex: 0
    m_ManualUV: 0
    elementGroup: 0
    m_TextureGroup: -1
  - m_Indexes: 380000003700000036000000
    m_SmoothingGroup: 0
    m_Uv:
      m_UseWorldSpace: 0
      m_FlipU: 0
      m_FlipV: 0
      m_SwapUV: 0
      m_Fill: 1
      m_Scale: {x: 1, y: 1}
      m_Offset: {x: 0, y: 0}
      m_Rotation: 0
      m_Anchor: 9
    m_Material: {fileID: 2100000, guid: c22777d6e868e4f2fb421913386b154e, type: 2}
    m_SubmeshIndex: 0
    m_ManualUV: 0
    elementGroup: 0
    m_TextureGroup: -1
  - m_Indexes: 1b0000001c0000001d000000
    m_SmoothingGroup: 0
    m_Uv:
      m_UseWorldSpace: 0
      m_FlipU: 0
      m_FlipV: 0
      m_SwapUV: 0
      m_Fill: 1
      m_Scale: {x: 1, y: 1}
      m_Offset: {x: 0, y: 0}
      m_Rotation: 0
      m_Anchor: 9
    m_Material: {fileID: 2100000, guid: c22777d6e868e4f2fb421913386b154e, type: 2}
    m_SubmeshIndex: 0
    m_ManualUV: 0
    elementGroup: 0
    m_TextureGroup: -1
  - m_Indexes: 210000002200000023000000
    m_SmoothingGroup: 0
    m_Uv:
      m_UseWorldSpace: 0
      m_FlipU: 0
      m_FlipV: 0
      m_SwapUV: 0
      m_Fill: 1
      m_Scale: {x: 1, y: 1}
      m_Offset: {x: 0, y: 0}
      m_Rotation: 0
      m_Anchor: 9
    m_Material: {fileID: 2100000, guid: c22777d6e868e4f2fb421913386b154e, type: 2}
    m_SubmeshIndex: 0
    m_ManualUV: 0
    elementGroup: 0
    m_TextureGroup: -1
  - m_Indexes: 270000002800000029000000
    m_SmoothingGroup: 0
    m_Uv:
      m_UseWorldSpace: 0
      m_FlipU: 0
      m_FlipV: 0
      m_SwapUV: 0
      m_Fill: 1
      m_Scale: {x: 1, y: 1}
      m_Offset: {x: 0, y: 0}
      m_Rotation: 0
      m_Anchor: 9
    m_Material: {fileID: 2100000, guid: c22777d6e868e4f2fb421913386b154e, type: 2}
    m_SubmeshIndex: 0
    m_ManualUV: 0
    elementGroup: 0
    m_TextureGroup: -1
  - m_Indexes: 2d0000002e0000002f000000
    m_SmoothingGroup: 0
    m_Uv:
      m_UseWorldSpace: 0
      m_FlipU: 0
      m_FlipV: 0
      m_SwapUV: 0
      m_Fill: 1
      m_Scale: {x: 1, y: 1}
      m_Offset: {x: 0, y: 0}
      m_Rotation: 0
      m_Anchor: 9
    m_Material: {fileID: 2100000, guid: c22777d6e868e4f2fb421913386b154e, type: 2}
    m_SubmeshIndex: 0
    m_ManualUV: 0
    elementGroup: 0
    m_TextureGroup: -1
  - m_Indexes: 330000003400000035000000
    m_SmoothingGroup: 0
    m_Uv:
      m_UseWorldSpace: 0
      m_FlipU: 0
      m_FlipV: 0
      m_SwapUV: 0
      m_Fill: 1
      m_Scale: {x: 1, y: 1}
      m_Offset: {x: 0, y: 0}
      m_Rotation: 0
      m_Anchor: 9
    m_Material: {fileID: 2100000, guid: c22777d6e868e4f2fb421913386b154e, type: 2}
    m_SubmeshIndex: 0
    m_ManualUV: 0
    elementGroup: 0
    m_TextureGroup: -1
  - m_Indexes: 390000003a0000003b000000
    m_SmoothingGroup: 0
    m_Uv:
      m_UseWorldSpace: 0
      m_FlipU: 0
      m_FlipV: 0
      m_SwapUV: 0
      m_Fill: 1
      m_Scale: {x: 1, y: 1}
      m_Offset: {x: 0, y: 0}
      m_Rotation: 0
      m_Anchor: 9
    m_Material: {fileID: 2100000, guid: c22777d6e868e4f2fb421913386b154e, type: 2}
    m_SubmeshIndex: 0
    m_ManualUV: 0
    elementGroup: 0
    m_TextureGroup: -1
  m_SharedVertices:
  - m_Vertices: 00000000160000001800000038000000
  - m_Vertices: 01000000170000001b0000003b000000
  - m_Vertices: 02000000040000001a0000001e000000
  - m_Vertices: 03000000050000001d00000021000000
  - m_Vertices: 06000000080000002000000024000000
  - m_Vertices: 07000000090000002300000027000000
  - m_Vertices: 0a0000000c000000260000002a000000
  - m_Vertices: 0b0000000d000000290000002d000000
  - m_Vertices: 0e000000100000002c00000030000000
  - m_Vertices: 0f000000110000002f00000033000000
  - m_Vertices: 12000000140000003200000036000000
  - m_Vertices: 13000000150000003500000039000000
  - m_Vertices: 190000001f000000250000002b0000003100000037000000
  - m_Vertices: 1c00000022000000280000002e000000340000003a000000
  m_SharedTextures: []
  m_Positions:
  - {x: 0, y: 0, z: 0}
  - {x: 0, y: 2.5, z: 0}
  - {x: -1, y: 0, z: 1.7320509}
  - {x: -1, y: 2.5, z: 1.7320509}
  - {x: -1, y: 0, z: 1.7320509}
  - {x: -1, y: 2.5, z: 1.7320509}
  - {x: -3, y: 0, z: 1.7320508}
  - {x: -3, y: 2.5, z: 1.7320508}
  - {x: -3, y: 0, z: 1.7320508}
  - {x: -3, y: 2.5, z: 1.7320508}
  - {x: -4, y: 0, z: -0.00000017484555}
  - {x: -4, y: 2.5, z: -0.00000017484555}
  - {x: -4, y: 0, z: -0.00000017484555}
  - {x: -4, y: 2.5, z: -0.00000017484555}
  - {x: -2.9999998, y: 0, z: -1.7320509}
  - {x: -2.9999998, y: 2.5, z: -1.7320509}
  - {x: -2.9999998, y: 0, z: -1.7320509}
  - {x: -2.9999998, y: 2.5, z: -1.7320509}
  - {x: -1.0000002, y: 0, z: -1.7320509}
  - {x: -1.0000002, y: 2.5, z: -1.7320509}
  - {x: -1.0000002, y: 0, z: -1.7320509}
  - {x: -1.0000002, y: 2.5, z: -1.7320509}
  - {x: 0, y: 0, z: 0}
  - {x: 0, y: 2.5, z: 0}
  - {x: 0, y: 0, z: 0}
  - {x: -2, y: 0, z: 0}
  - {x: -1, y: 0, z: 1.7320509}
  - {x: 0, y: 2.5, z: 0}
  - {x: -2, y: 3.5075765, z: 0}
  - {x: -1, y: 2.5, z: 1.7320509}
  - {x: -1, y: 0, z: 1.7320509}
  - {x: -2, y: 0, z: 0}
  - {x: -3, y: 0, z: 1.7320508}
  - {x: -1, y: 2.5, z: 1.7320509}
  - {x: -2, y: 3.5075765, z: 0}
  - {x: -3, y: 2.5, z: 1.7320508}
  - {x: -3, y: 0, z: 1.7320508}
  - {x: -2, y: 0, z: 0}
  - {x: -4, y: 0, z: -0.00000017484555}
  - {x: -3, y: 2.5, z: 1.7320508}
  - {x: -2, y: 3.5075765, z: 0}
  - {x: -4, y: 2.5, z: -0.00000017484555}
  - {x: -4, y: 0, z: -0.00000017484555}
  - {x: -2, y: 0, z: 0}
  - {x: -2.9999998, y: 0, z: -1.7320509}
  - {x: -4, y: 2.5, z: -0.00000017484555}
  - {x: -2, y: 3.5075765, z: 0}
  - {x: -2.9999998, y: 2.5, z: -1.7320509}
  - {x: -2.9999998, y: 0, z: -1.7320509}
  - {x: -2, y: 0, z: 0}
  - {x: -1.0000002, y: 0, z: -1.7320509}
  - {x: -2.9999998, y: 2.5, z: -1.7320509}
  - {x: -2, y: 3.5075765, z: 0}
  - {x: -1.0000002, y: 2.5, z: -1.7320509}
  - {x: -1.0000002, y: 0, z: -1.7320509}
  - {x: -2, y: 0, z: 0}
  - {x: 0, y: 0, z: 0}
  - {x: -1.0000002, y: 2.5, z: -1.7320509}
  - {x: -2, y: 3.5075765, z: 0}
  - {x: 0, y: 2.5, z: 0}
  m_Textures0:
  - {x: 0, y: 0}
  - {x: 0, y: 2.5}
  - {x: 2.0000002, y: 0}
  - {x: 2.0000002, y: 2.5}
  - {x: 0.9999999, y: 0}
  - {x: 0.9999999, y: 2.5}
  - {x: 3, y: 0}
  - {x: 3, y: 2.5}
  - {x: -0.000000049393577, y: 0}
  - {x: -0.000000049393577, y: 2.5}
  - {x: 2.0000002, y: 0}
  - {x: 2.0000002, y: 2.5}
  - {x: -2.0000002, y: 0}
  - {x: -2.0000002, y: 2.5}
  - {x: -0.00000029226325, y: 0}
  - {x: -0.00000029226325, y: 2.5}
  - {x: -2.9999998, y: 0}
  - {x: -2.9999998, y: 2.5}
  - {x: -1.0000002, y: 0}
  - {x: -1.0000002, y: 2.5}
  - {x: -2.0000002, y: 0}
  - {x: -2.0000002, y: 2.5}
  - {x: 0, y: 0}
  - {x: 0, y: 2.5}
  - {x: 0, y: 0}
  - {x: 2, y: 0}
  - {x: 1, y: 1.7320509}
  - {x: -1.1247952, y: -0.5613314}
  - {x: -3.3642616, y: -0.5613314}
  - {x: -2.017865, y: 1.2282012}
  - {x: 1, y: 1.7320509}
  - {x: 2, y: 0}
  - {x: 3, y: 1.7320508}
  - {x: -0.99999994, y: 0.24007331}
  - {x: -1.9999999, y: -1.7637256}
  - {x: -3, y: 0.24007317}
  - {x: 3, y: 1.7320508}
  - {x: 2, y: 0}
  - {x: 4, y: -0.00000017484555}
  - {x: -1.5544143, y: 0.77573365}
  - {x: -0.2080176, y: -1.0137987}
  - {x: -2.447484, y: -1.013799}
  - {x: 4, y: -0.00000017484555}
  - {x: 2, y: 0}
  - {x: 2.9999998, y: -1.7320509}
  - {x: -2.4474843, y: 1.0137988}
  - {x: -0.20801772, y: 1.013799}
  - {x: -1.5544143, y: -0.77573353}
  - {x: 2.9999998, y: -1.7320509}
  - {x: 2, y: 0}
  - {x: 1.0000002, y: -1.7320509}
  - {x: -2.9999998, y: -0.24007358}
  - {x: -2, y: 1.7637254}
  - {x: -1.0000002, y: -0.24007358}
  - {x: 1.0000002, y: -1.7320509}
  - {x: 2, y: 0}
  - {x: 0, y: 0}
  - {x: -2.0178652, y: -1.2282012}
  - {x: -3.3642616, y: 0.56133145}
  - {x: -1.1247952, y: 0.56133145}
  m_Textures2: []
  m_Textures3: []
  m_Tangents:
  - {x: 0.00000003441276, y: 0, z: 1, w: -1}
  - {x: 0.00000003441276, y: 0, z: 1, w: -1}
  - {x: -0.8660254, y: 0, z: 0.49999994, w: -1}
  - {x: -0.8660254, y: 0, z: 0.49999994, w: -1}
  - {x: -0.86602545, y: 0, z: 0.50000006, w: -1}
  - {x: -0.86602545, y: 0, z: 0.50000006, w: -1}
  - {x: -0.8660254, y: 0, z: -0.50000006, w: -1}
  - {x: -0.8660254, y: 0, z: -0.50000006, w: -1}
  - {x: -0.8660253, y: 0, z: -0.5, w: -1}
  - {x: -0.8660253, y: 0, z: -0.5, w: -1}
  - {x: 0.00000006882553, y: 0, z: -1, w: -1}
  - {x: 0.00000006882553, y: 0, z: -1, w: -1}
  - {x: 0.000000068825514, y: 0, z: -1, w: -1}
  - {x: 0.000000068825514, y: 0, z: -1, w: -1}
  - {x: 0.86602545, y: 0, z: -0.49999997, w: -1}
  - {x: 0.86602545, y: 0, z: -0.49999997, w: -1}
  - {x: 0.86602545, y: 0, z: -0.49999994, w: -1}
  - {x: 0.86602545, y: 0, z: -0.49999994, w: -1}
  - {x: 0.86602545, y: 0, z: 0.50000006, w: -1}
  - {x: 0.86602545, y: 0, z: 0.50000006, w: -1}
  - {x: 0.86602545, y: 0, z: 0.4999999, w: -1}
  - {x: 0.86602545, y: 0, z: 0.4999999, w: -1}
  - {x: 0, y: 0, z: 1, w: -1}
  - {x: 0, y: 0, z: 1, w: -1}
  - {x: -1, y: 0, z: 0, w: -1}
  - {x: -1, y: 0, z: 0, w: -1}
  - {x: -1, y: 0, z: 0, w: -1}
  - {x: 0.89306986, y: -0.4499181, z: 0, w: -1}
  - {x: 0.89306986, y: -0.4499181, z: 0, w: -1}
  - {x: 0.89306986, y: -0.4499181, z: 0, w: -1}
  - {x: -1, y: 0, z: 0, w: -1}
  - {x: -1, y: 0, z: 0, w: -1}
  - {x: -1, y: 0, z: 0, w: -1}
  - {x: 1, y: 0.00000003371759, z: 0.0000000016432097, w: -1}
  - {x: 1, y: 0.00000003371759, z: 0.0000000016432097, w: -1}
  - {x: 1, y: 0.00000003371759, z: 0.0000000016432097, w: -1}
  - {x: -1, y: 0, z: 0, w: -1}
  - {x: -1, y: 0, z: 0, w: -1}
  - {x: -1, y: 0, z: 0, w: -1}
  - {x: 0.89306986, y: 0.4499181, z: -0.000000054155635, w: -1}
  - {x: 0.89306986, y: 0.4499181, z: -0.000000054155635, w: -1}
  - {x: 0.89306986, y: 0.4499181, z: -0.000000054155635, w: -1}
  - {x: -1, y: 0, z: 0, w: -1}
  - {x: -1, y: 0, z: 0, w: -1}
  - {x: -1, y: 0, z: 0, w: -1}
  - {x: 0.8930699, y: 0.4499181, z: 0.000000024874927, w: -1}
  - {x: 0.8930699, y: 0.4499181, z: 0.000000024874927, w: -1}
  - {x: 0.8930699, y: 0.4499181, z: 0.000000024874927, w: -1}
  - {x: -1, y: 0, z: 0, w: -1}
  - {x: -1, y: 0, z: 0, w: -1}
  - {x: -1, y: 0, z: 0, w: -1}
  - {x: 1, y: 0, z: 0, w: -1}
  - {x: 1, y: 0, z: 0, w: -1}
  - {x: 1, y: 0, z: 0, w: -1}
  - {x: -1, y: 0, z: 0, w: -1}
  - {x: -1, y: 0, z: 0, w: -1}
  - {x: -1, y: 0, z: 0, w: -1}
  - {x: 0.89306986, y: -0.4499181, z: 0, w: -1}
  - {x: 0.89306986, y: -0.4499181, z: 0, w: -1}
  - {x: 0.89306986, y: -0.4499181, z: 0, w: -1}
  m_Colors: []
  m_UnwrapParameters:
    m_HardAngle: 88
    m_PackMargin: 20
    m_AngleError: 8
    m_AreaError: 15
  m_PreserveMeshAssetOnDestroy: 0
  assetGuid: 
  m_IsSelectable: 1
  m_SelectedFaces: 
  m_SelectedEdges: []
  m_SelectedVertices: 
--- !u!64 &7744650194163897124
MeshCollider:
  m_ObjectHideFlags: 0
  m_CorrespondingSourceObject: {fileID: 0}
  m_PrefabInstance: {fileID: 0}
  m_PrefabAsset: {fileID: 0}
  m_GameObject: {fileID: 5761378338694217669}
  m_Material: {fileID: 0}
  m_IsTrigger: 0
  m_Enabled: 1
  serializedVersion: 4
  m_Convex: 0
  m_CookingOptions: 30
  m_Mesh: {fileID: 0}
